<?xml version='1.0' encoding='UTF-8'?>
<kml xmlns='http://www.opengis.net/kml/2.2'>
	<Document>
		<name>Desjardins</name>
		<Placemark>
			<name>Desjardins 360d - Université de Montréal
</name>
			<styleUrl>#icon-503-DB4436-nodesc</styleUrl>
			<Point>
				<coordinates>-73.6181102,45.4965981,0.0</coordinates>
			</Point>
		</Placemark>
		<Placemark>
			<name>Desjardins 360d - Concordia</name>
			<styleUrl>#icon-503-DB4436-nodesc</styleUrl>
			<Point>
				<coordinates>-73.5778837,45.4956132,0.0</coordinates>
			</Point>
		</Placemark>
		<Placemark>
			<name>Desjardins 360d - UQAM</name>
			<styleUrl>#icon-503-DB4436-nodesc</styleUrl>
			<Point>
				<coordinates>-73.56113089999997,45.5129651,0.0</coordinates>
			</Point>
		</Placemark>
		<Placemark>
			<name>Desjardins - Montréal Marché Central</name>
			<styleUrl>#icon-503-DB4436-nodesc</styleUrl>
			<Point>
				<coordinates>-73.65615000000003,45.534047,0.0</coordinates>
			</Point>
		</Placemark>
		<Placemark>
			<name>Caisse Desjardins du Sud-Ouest de Montréal</name>
			<styleUrl>#icon-503-DB4436-nodesc</styleUrl>
			<Point>
				<coordinates>-73.56443990000002,45.481208,0.0</coordinates>
			</Point>
		</Placemark>
		<Placemark>
			<name>Caisse Desjardins du Quartier-Latin de Montréal</name>
			<styleUrl>#icon-503-DB4436-nodesc</styleUrl>
			<Point>
				<coordinates>-73.55869510000002,45.5143794,0.0</coordinates>
			</Point>
		</Placemark>
		<Placemark>
			<name>Caisse de Saint-Henri et Ville-Émard</name>
			<styleUrl>#icon-503-DB4436-nodesc</styleUrl>
			<Point>
				<coordinates>-73.56443990000002,45.481208,0.0</coordinates>
			</Point>
		</Placemark>
		<Placemark>
			<name>Caisse Desjardins d'Ahuntsic</name>
			<styleUrl>#icon-503-DB4436-nodesc</styleUrl>
			<Point>
				<coordinates>-73.65878370000001,45.5582228,0.0</coordinates>
			</Point>
		</Placemark>
		<Placemark>
			<name>Caisse Desjardins du Plateau-Mont-Royal</name>
			<styleUrl>#icon-503-DB4436-nodesc</styleUrl>
			<Point>
				<coordinates>-73.58280009999999,45.5245278,0.0</coordinates>
			</Point>
		</Placemark>
		<Placemark>
			<name>Caisse populaire Desjardins de Saint-Laurent</name>
			<styleUrl>#icon-503-DB4436-nodesc</styleUrl>
			<Point>
				<coordinates>-73.67774099999997,45.51175539999999,0.0</coordinates>
			</Point>
		</Placemark>
		<Placemark>
			<name>Caisse Desjardins des Versants du mont Royal</name>
			<styleUrl>#icon-503-DB4436-nodesc</styleUrl>
			<Point>
				<coordinates>-73.60785499999997,45.5214562,0.0</coordinates>
			</Point>
		</Placemark>
		<Placemark>
			<name>Caisse Desjardins Cité-du-Nord de Montréal</name>
			<styleUrl>#icon-503-DB4436-nodesc</styleUrl>
			<Point>
				<coordinates>-73.62969040000002,45.5386686,0.0</coordinates>
			</Point>
		</Placemark>
		<Placemark>
			<name>Caisse Desjardins de Notre-Dame-de-Grâce</name>
			<styleUrl>#icon-503-DB4436-nodesc</styleUrl>
			<Point>
				<coordinates>-73.61485249999998,45.4769044,0.0</coordinates>
			</Point>
		</Placemark>
		<Placemark>
			<name>Caisse Desjardins de L'Île-des-Sœurs–Verdun</name>
			<styleUrl>#icon-503-DB4436-nodesc</styleUrl>
			<Point>
				<coordinates>-73.57211960000001,45.4559029,0.0</coordinates>
			</Point>
		</Placemark>
		<Placemark>
			<name>Caisse Desjardins de Lachine</name>
			<styleUrl>#icon-503-DB4436-nodesc</styleUrl>
			<Point>
				<coordinates>-73.67208440000002,45.4420825,0.0</coordinates>
			</Point>
		</Placemark>
		<Placemark>
			<name>Caisse Desjardins de Vaudreuil-Soulanges</name>
			<styleUrl>#icon-503-DB4436-nodesc</styleUrl>
			<Point>
				<coordinates>-73.9623258,45.3878972,0.0</coordinates>
			</Point>
		</Placemark>
		<Placemark>
			<name>Caisse Desjardins de Bois-Franc—Bordeaux—Cartierville</name>
			<styleUrl>#icon-503-DB4436-nodesc</styleUrl>
			<Point>
				<coordinates>-73.69211580000001,45.5122425,0.0</coordinates>
			</Point>
		</Placemark>
		<Placemark>
			<name>Caisse Desjardins des Sources–Lac-Saint-Louis</name>
			<styleUrl>#icon-503-DB4436-nodesc</styleUrl>
			<Point>
				<coordinates>-73.82909990000002,45.4683285,0.0</coordinates>
			</Point>
		</Placemark>
		<Placemark>
			<name>Caisse populaire Sainte-Geneviève de Pierrefonds</name>
			<styleUrl>#icon-503-DB4436-nodesc</styleUrl>
			<Point>
				<coordinates>-73.86169159999997,45.4821151,0.0</coordinates>
			</Point>
		</Placemark>
		<Placemark>
			<name>Caisse populaire Desjardins Saint-Simon-Apôtre de Montréal</name>
			<styleUrl>#icon-503-DB4436-nodesc</styleUrl>
			<Point>
				<coordinates>-73.6469391,45.540776,0.0</coordinates>
			</Point>
		</Placemark>
		<Placemark>
			<name>Caisse Desjardins de LaSalle</name>
			<styleUrl>#icon-503-DB4436-nodesc</styleUrl>
			<Point>
				<coordinates>-73.623213,45.4380253,0.0</coordinates>
			</Point>
		</Placemark>
		<Placemark>
			<name>Caisse populaire Desjardins de la Maison de Radio-Canada</name>
			<styleUrl>#icon-503-DB4436-nodesc</styleUrl>
			<Point>
				<coordinates>-73.5585208,45.5143926,0.0</coordinates>
			</Point>
		</Placemark>
		<Placemark>
			<name>Caisse Desjardins du Complexe Desjardins</name>
			<styleUrl>#icon-503-DB4436-nodesc</styleUrl>
			<Point>
				<coordinates>-73.5643619,45.507208,0.0</coordinates>
			</Point>
		</Placemark>
		<Placemark>
			<name>Caisse Desjardins de l’Est du Plateau</name>
			<styleUrl>#icon-503-DB4436-nodesc</styleUrl>
			<Point>
				<coordinates>-73.5826311,45.5245203,0.0</coordinates>
			</Point>
		</Placemark>
		<Placemark>
			<name>Desjardins – Montréal Centre-ville</name>
			<styleUrl>#icon-503-DB4436-nodesc</styleUrl>
			<Point>
				<coordinates>-73.572194,45.4999065,0.0</coordinates>
			</Point>
		</Placemark>
		<Placemark>
			<name>Caisse populaire Desjardins de Jean-Talon—Papineau</name>
			<styleUrl>#icon-503-DB4436-nodesc</styleUrl>
			<Point>
				<coordinates>-73.60398220000002,45.5516918,0.0</coordinates>
			</Point>
		</Placemark>
		<Placemark>
			<name>Caisse Desjardins De Lorimier-Villeray</name>
			<styleUrl>#icon-503-DB4436-nodesc</styleUrl>
			<Point>
				<coordinates>-73.58927890000001,45.5427871,0.0</coordinates>
			</Point>
		</Placemark>
		<Placemark>
			<name>Caisse Desjardins de Rosemont–La Petite-Patrie</name>
			<styleUrl>#icon-503-DB4436-nodesc</styleUrl>
			<Point>
				<coordinates>-73.5906607,45.5501996,0.0</coordinates>
			</Point>
		</Placemark>
		<Placemark>
			<name>Caisse Desjardins d'Anjou–Tétreaultville</name>
			<styleUrl>#icon-503-DB4436-nodesc</styleUrl>
			<Point>
				<coordinates>-73.55456370000002,45.60510219999999,0.0</coordinates>
			</Point>
		</Placemark>
		<Placemark>
			<name>Caisse populaire Desjardins de Pointe-aux-Trembles</name>
			<styleUrl>#icon-503-DB4436-nodesc</styleUrl>
			<Point>
				<coordinates>-73.5085527,45.6574328,0.0</coordinates>
			</Point>
		</Placemark>
		<Placemark>
			<name>Caisse Desjardins de Longue-Pointe</name>
			<styleUrl>#icon-503-DB4436-nodesc</styleUrl>
			<Point>
				<coordinates>-73.50999350000001,45.5901968,0.0</coordinates>
			</Point>
		</Placemark>
		<Placemark>
			<name>Caisse Desjardins du Centre-est de la métropole</name>
			<styleUrl>#icon-503-DB4436-nodesc</styleUrl>
			<Point>
				<coordinates>-73.58737930000001,45.5715323,0.0</coordinates>
			</Point>
		</Placemark>
		<Placemark>
			<name>Caisse populaire Desjardins d'Hochelaga-Maisonneuve</name>
			<styleUrl>#icon-503-DB4436-nodesc</styleUrl>
			<Point>
				<coordinates>-73.543158,45.548103,0.0</coordinates>
			</Point>
		</Placemark>
		<Placemark>
			<name>Caisse populaire Desjardins Ukrainienne de Montréal</name>
			<styleUrl>#icon-503-DB4436-nodesc</styleUrl>
			<Point>
				<coordinates>-73.586028,45.5551944,0.0</coordinates>
			</Point>
		</Placemark>
		<Placemark>
			<name>Caisse Desjardins de Mercier-Rosemont</name>
			<styleUrl>#icon-503-DB4436-nodesc</styleUrl>
			<Point>
				<coordinates>-73.5713814,45.5968788,0.0</coordinates>
			</Point>
		</Placemark>
		<Placemark>
			<name>Caisse Desjardins de Rivière-des-Prairies</name>
			<styleUrl>#icon-503-DB4436-nodesc</styleUrl>
			<Point>
				<coordinates>-73.58465999999999,45.63451899999999,0.0</coordinates>
			</Point>
		</Placemark>
		<Placemark>
			<name>Caisse Desjardins de la Vallée des Pays-d'en-Haut</name>
			<styleUrl>#icon-503-DB4436-nodesc</styleUrl>
			<Point>
				<coordinates>-74.15696980000001,45.895247,0.0</coordinates>
			</Point>
		</Placemark>
		<Placemark>
			<name>Caisse Desjardins Thérèse-De Blainville</name>
			<styleUrl>#icon-503-DB4436-nodesc</styleUrl>
			<Point>
				<coordinates>-73.83721539999999,45.64503029999999,0.0</coordinates>
			</Point>
		</Placemark>
		<Placemark>
			<name>Caisse Desjardins de Saint-Jérôme</name>
			<styleUrl>#icon-503-DB4436-nodesc</styleUrl>
			<Point>
				<coordinates>-74.0035092,45.7774945,0.0</coordinates>
			</Point>
		</Placemark>
		<Placemark>
			<name>Caisse Desjardins de Mont-Tremblant</name>
			<styleUrl>#icon-503-DB4436-nodesc</styleUrl>
			<Point>
				<coordinates>-74.59422159999997,46.1195763,0.0</coordinates>
			</Point>
		</Placemark>
		<Placemark>
			<name>Caisse Desjardins du Lac des Deux-Montagnes</name>
			<styleUrl>#icon-503-DB4436-nodesc</styleUrl>
			<Point>
				<coordinates>-74.08478589999999,45.4622947,0.0</coordinates>
			</Point>
		</Placemark>
		<Placemark>
			<name>Caisse populaire Desjardins de Sainte-Agathe-des-Monts</name>
			<styleUrl>#icon-503-DB4436-nodesc</styleUrl>
			<Point>
				<coordinates>-74.28417739999998,46.04646880000001,0.0</coordinates>
			</Point>
		</Placemark>
		<Placemark>
			<name>Caisse populaire Desjardins de Mirabel</name>
			<styleUrl>#icon-503-DB4436-nodesc</styleUrl>
			<Point>
				<coordinates>-73.98062849999997,45.625269,0.0</coordinates>
			</Point>
		</Placemark>
		<Placemark>
			<name>Caisse Populaire Desjardins des Trois-Vallées</name>
			<styleUrl>#icon-503-DB4436-nodesc</styleUrl>
			<Point>
				<coordinates>-74.63250390000002,45.9779153,0.0</coordinates>
			</Point>
		</Placemark>
		<Placemark>
			<name>Caisse Desjardins de l'Envolée</name>
			<styleUrl>#icon-503-DB4436-nodesc</styleUrl>
			<Point>
				<coordinates>-73.92912179999996,45.70546359999999,0.0</coordinates>
			</Point>
		</Placemark>
		<Placemark>
			<name>Caisse Desjardins d'Argenteuil</name>
			<styleUrl>#icon-503-DB4436-nodesc</styleUrl>
			<Point>
				<coordinates>-74.33269519999999,45.6569932,0.0</coordinates>
			</Point>
		</Placemark>
		<Placemark>
			<name>Caisse Desjardins de la Rouge</name>
			<styleUrl>#icon-503-DB4436-nodesc</styleUrl>
			<Point>
				<coordinates>-74.87111140000002,46.41428569999999,0.0</coordinates>
			</Point>
		</Placemark>
		<Placemark>
			<name>Caisse Desjardins du Nord de Laval</name>
			<styleUrl>#icon-503-DB4436-nodesc</styleUrl>
			<Point>
				<coordinates>-73.7862821,45.59283569999999,0.0</coordinates>
			</Point>
		</Placemark>
		<Placemark>
			<name>Caisse Desjardins de Chomedey</name>
			<styleUrl>#icon-503-DB4436-nodesc</styleUrl>
			<Point>
				<coordinates>-73.727936,45.542148,0.0</coordinates>
			</Point>
		</Placemark>
		<Placemark>
			<name>Caisse populaire Desjardins des Mille-Îles</name>
			<styleUrl>#icon-503-DB4436-nodesc</styleUrl>
			<Point>
				<coordinates>-73.649787,45.6044452,0.0</coordinates>
			</Point>
		</Placemark>
		<Placemark>
			<name>Caisse Desjardins de Vimont-Auteuil</name>
			<styleUrl>#icon-503-DB4436-nodesc</styleUrl>
			<Point>
				<coordinates>-73.72807929999999,45.602139,0.0</coordinates>
			</Point>
		</Placemark>
		<Placemark>
			<name>Caisse populaire de Saint-Claude</name>
			<styleUrl>#icon-503-DB4436-nodesc</styleUrl>
			<Point>
				<coordinates>-73.70149509999999,45.56506569999999,0.0</coordinates>
			</Point>
		</Placemark>
		<Placemark>
			<name>Caisse populaire Desjardins Beauharnois</name>
			<styleUrl>#icon-503-DB4436-nodesc</styleUrl>
			<Point>
				<coordinates>-73.87668489999999,45.3140053,0.0</coordinates>
			</Point>
		</Placemark>
		<Placemark>
			<name>Caisse Desjardins du Mont-Saint-Bruno</name>
			<styleUrl>#icon-503-DB4436-nodesc</styleUrl>
			<Point>
				<coordinates>-73.33964639999999,45.5254732,0.0</coordinates>
			</Point>
		</Placemark>
		<Placemark>
			<name>Caisse Desjardins du Grand-Coteau</name>
			<styleUrl>#icon-503-DB4436-nodesc</styleUrl>
			<Point>
				<coordinates>-73.33360809999999,45.58028780000001,0.0</coordinates>
			</Point>
		</Placemark>
		<Placemark>
			<name>Caisse Desjardins Notre-Dame de Bellerive</name>
			<styleUrl>#icon-503-DB4436-nodesc</styleUrl>
			<Point>
				<coordinates>-74.13531799999998,45.2646256,0.0</coordinates>
			</Point>
		</Placemark>
		<Placemark>
			<name>Caisse Desjardins de Saint-Hubert</name>
			<styleUrl>#icon-503-DB4436-nodesc</styleUrl>
			<Point>
				<coordinates>-73.40757029999997,45.4973226,0.0</coordinates>
			</Point>
		</Placemark>
		<Placemark>
			<name>Caisse Desjardins de Longueuil</name>
			<styleUrl>#icon-503-DB4436-nodesc</styleUrl>
			<Point>
				<coordinates>-73.50840800000003,45.5406164,0.0</coordinates>
			</Point>
		</Placemark>
		<Placemark>
			<name>Caisse Desjardins de Varennes</name>
			<styleUrl>#icon-503-DB4436-nodesc</styleUrl>
			<Point>
				<coordinates>-73.43101009999998,45.6679518,0.0</coordinates>
			</Point>
		</Placemark>
		<Placemark>
			<name>Caisse populaire de La Prairie</name>
			<styleUrl>#icon-503-DB4436-nodesc</styleUrl>
			<Point>
				<coordinates>-73.49237699999998,45.41348199999999,0.0</coordinates>
			</Point>
		</Placemark>
		<Placemark>
			<name>Caisse Desjardins de Boucherville</name>
			<styleUrl>#icon-503-DB4436-nodesc</styleUrl>
			<Point>
				<coordinates>-73.4317241,45.5876312,0.0</coordinates>
			</Point>
		</Placemark>
		<Placemark>
			<name>Caisse Desjardins de Contrecoeur-Verchères</name>
			<styleUrl>#icon-503-DB4436-nodesc</styleUrl>
			<Point>
				<coordinates>-73.35394869999999,45.7772019,0.0</coordinates>
			</Point>
		</Placemark>
		<Placemark>
			<name>Caisse Desjardins de Saint-Pierre-Apôtre</name>
			<styleUrl>#icon-503-DB4436-nodesc</styleUrl>
			<Point>
				<coordinates>-73.49918339999999,45.5330702,0.0</coordinates>
			</Point>
		</Placemark>
		<Placemark>
			<name>Caisse Desjardins des Seigneuries de la frontière</name>
			<styleUrl>#icon-503-DB4436-nodesc</styleUrl>
			<Point>
				<coordinates>-73.4063683,45.18805709999999,0.0</coordinates>
			</Point>
		</Placemark>
		<Placemark>
			<name>Caisse Desjardins Charles-LeMoyne</name>
			<styleUrl>#icon-503-DB4436-nodesc</styleUrl>
			<Point>
				<coordinates>-73.51167850000002,45.5013757,0.0</coordinates>
			</Point>
		</Placemark>
		<Placemark>
			<name>Caisse Desjardins des Berges de Roussillon</name>
			<styleUrl>#icon-503-DB4436-nodesc</styleUrl>
			<Point>
				<coordinates>-73.5720349,45.3872816,0.0</coordinates>
			</Point>
		</Placemark>
		<Placemark>
			<name>Caisse Desjardins de Brossard</name>
			<styleUrl>#icon-503-DB4436-nodesc</styleUrl>
			<Point>
				<coordinates>-73.47043450000001,45.4686558,0.0</coordinates>
			</Point>
		</Placemark>
		<Placemark>
			<name>Caisse Desjardins Pierre-Boucher</name>
			<styleUrl>#icon-503-DB4436-nodesc</styleUrl>
			<Point>
				<coordinates>-73.46572400000002,45.53592,0.0</coordinates>
			</Point>
		</Placemark>
		<Placemark>
			<name>Caisse populaire Kahnawake</name>
			<styleUrl>#icon-503-DB4436-nodesc</styleUrl>
			<Point>
				<coordinates>-73.68114300000002,45.410664,0.0</coordinates>
			</Point>
		</Placemark>
		<Placemark>
			<name>Caisse Desjardins de Châteauguay - Siège social</name>
			<styleUrl>#icon-503-DB4436-nodesc</styleUrl>
			<Point>
				<coordinates>-73.75622880000003,45.34447309999999,0.0</coordinates>
			</Point>
		</Placemark>
		<Placemark>
			<name>Caisse populaire Desjardins Christ-Roi de Châteauguay</name>
			<styleUrl>#icon-503-DB4436-nodesc</styleUrl>
			<Point>
				<coordinates>-73.75622880000003,45.34447309999999,0.0</coordinates>
			</Point>
		</Placemark>
		<Placemark>
			<name>Caisse Desjardins du Haut-Saint-Laurent
</name>
			<styleUrl>#icon-503-DB4436-nodesc</styleUrl>
			<Point>
				<coordinates>-73.9917084,45.12289120000001,0.0</coordinates>
			</Point>
		</Placemark>
		<Placemark>
			<name>La Caisse Populaire de St-Urbain</name>
			<styleUrl>#icon-503-DB4436-nodesc</styleUrl>
			<Point>
				<coordinates>-73.73820230000001,45.22017629999999,0.0</coordinates>
			</Point>
		</Placemark>
		<Placemark>
			<name>Caisse Desjardins de l'Ouest de la Montérégie</name>
			<styleUrl>#icon-503-DB4436-nodesc</styleUrl>
			<Point>
				<coordinates>-73.74077160000002,45.3172891,0.0</coordinates>
			</Point>
		</Placemark>
		<Placemark>
			<name>Caisse Desjardins de Salaberry-de-Valleyfield</name>
			<styleUrl>#icon-503-DB4436-nodesc</styleUrl>
			<Point>
				<coordinates>-74.1290252,45.2574897,0.0</coordinates>
			</Point>
		</Placemark>
		<Placemark>
			<name>Caisse Desjardins des Moissons</name>
			<styleUrl>#icon-503-DB4436-nodesc</styleUrl>
			<Point>
				<coordinates>-73.6180094,45.26004229999999,0.0</coordinates>
			</Point>
		</Placemark>
		<Placemark>
			<name>Caisse Desjardins des Grands boulevards de Laval</name>
			<styleUrl>#icon-503-DB4436-nodesc</styleUrl>
			<Point>
				<coordinates>-73.746937,45.5581139,0.0</coordinates>
			</Point>
		</Placemark>
		<Placemark>
			<name>Caisse Desjardins de Saint-Antoine-des-Laurentides</name>
			<styleUrl>#icon-503-DB4436-nodesc</styleUrl>
			<Point>
				<coordinates>-73.98764059999996,45.7620762,0.0</coordinates>
			</Point>
		</Placemark>
		<Placemark>
			<name>Caisse Desjardins de Saint-Martin de Laval</name>
			<styleUrl>#icon-503-DB4436-nodesc</styleUrl>
			<Point>
				<coordinates>-73.77012450000001,45.5593882,0.0</coordinates>
			</Point>
		</Placemark>
		<Placemark>
			<name>Caisse Desjardins du Cœur des Hautes-Laurentides</name>
			<styleUrl>#icon-503-DB4436-nodesc</styleUrl>
			<Point>
				<coordinates>-75.49443989999997,46.5508361,0.0</coordinates>
			</Point>
		</Placemark>
		<Placemark>
			<name>Caisse Desjardins de Saint-Eustache–Deux-Montagnes</name>
			<styleUrl>#icon-503-DB4436-nodesc</styleUrl>
			<Point>
				<coordinates>-73.91582499999998,45.5759434,0.0</coordinates>
			</Point>
		</Placemark>
		<Placemark>
			<name>Caisse Desjardins de l'Ouest de Laval</name>
			<styleUrl>#icon-503-DB4436-nodesc</styleUrl>
			<Point>
				<coordinates>-73.7808478,45.5232175,0.0</coordinates>
			</Point>
		</Placemark>
		<Placemark>
			<name>Caisse Desjardins Canadienne Italienne</name>
			<styleUrl>#icon-503-DB4436-nodesc</styleUrl>
			<Point>
				<coordinates>-73.61527000000001,45.533565,0.0</coordinates>
			</Point>
		</Placemark>
		<Placemark>
			<name>Caisse populaire Desjardins Saint-Donat de Montréal</name>
			<styleUrl>#icon-503-DB4436-nodesc</styleUrl>
			<Point>
				<coordinates>-73.54356899999999,45.5806648,0.0</coordinates>
			</Point>
		</Placemark>
		<Placemark>
			<name>Caisse Desjardins de Sault-au-Récollet – Montréal-Nord</name>
			<styleUrl>#icon-503-DB4436-nodesc</styleUrl>
			<Point>
				<coordinates>-73.6311412,45.5855302,0.0</coordinates>
			</Point>
		</Placemark>
		<Placemark>
			<name>Caisse populaire Desjardins Préfontaine-Hochelaga</name>
			<styleUrl>#icon-503-DB4436-nodesc</styleUrl>
			<Point>
				<coordinates>-73.560832,45.5453525,0.0</coordinates>
			</Point>
		</Placemark>
		<Style id='icon-503-DB4436-nodesc-normal'>
			<IconStyle>
				<color>ff3644DB</color>
				<scale>1.1</scale>
				<Icon>
					<href>http://www.gstatic.com/mapspro/images/stock/503-wht-blank_maps.png</href>
				</Icon>
				<hotSpot x='16' y='31' xunits='pixels' yunits='insetPixels'>
				</hotSpot>
			</IconStyle>
			<LabelStyle>
				<scale>0.0</scale>
			</LabelStyle>
			<BalloonStyle>
				<text><![CDATA[<h3>$[name]</h3>]]></text>
			</BalloonStyle>
		</Style>
		<Style id='icon-503-DB4436-nodesc-highlight'>
			<IconStyle>
				<color>ff3644DB</color>
				<scale>1.1</scale>
				<Icon>
					<href>http://www.gstatic.com/mapspro/images/stock/503-wht-blank_maps.png</href>
				</Icon>
				<hotSpot x='16' y='31' xunits='pixels' yunits='insetPixels'>
				</hotSpot>
			</IconStyle>
			<LabelStyle>
				<scale>1.1</scale>
			</LabelStyle>
			<BalloonStyle>
				<text><![CDATA[<h3>$[name]</h3>]]></text>
			</BalloonStyle>
		</Style>
		<StyleMap id='icon-503-DB4436-nodesc'>
			<Pair>
				<key>normal</key>
				<styleUrl>#icon-503-DB4436-nodesc-normal</styleUrl>
			</Pair>
			<Pair>
				<key>highlight</key>
				<styleUrl>#icon-503-DB4436-nodesc-highlight</styleUrl>
			</Pair>
		</StyleMap>
	</Document>
</kml>